\relax 
\@writefile{toc}{\contentsline {section}{\numberline {1}Few generic steps}{1}}
\@writefile{toc}{\contentsline {section}{\numberline {2}Feedback Vertex Set}{1}}
\@writefile{toc}{\contentsline {subsection}{\numberline {2.1}Reductions}{1}}
\@writefile{toc}{\contentsline {subsection}{\numberline {2.2}Lemma: Runtime for disjoint vertex set}{2}}
\@writefile{toc}{\contentsline {subsection}{\numberline {2.3}proof}{2}}
\@writefile{toc}{\contentsline {subsection}{\numberline {2.4}Running time}{2}}
\@writefile{toc}{\contentsline {subsection}{\numberline {2.5}(Almost) Fastest algorithm for disjoint feedback vertex set}{2}}
\@writefile{toc}{\contentsline {subsection}{\numberline {2.6}The Algorithm}{2}}
