PWD /home/hussam/AdvAlgorithms
INPUT /etc/texmf/web2c/texmf.cnf
INPUT /usr/share/texmf/web2c/texmf.cnf
INPUT /usr/share/texlive/texmf-dist/web2c/texmf.cnf
INPUT /var/lib/texmf/web2c/pdftex/pdflatex.fmt
INPUT IterativeCompression.tex
OUTPUT IterativeCompression.log
INPUT /usr/share/texlive/texmf-dist/tex/latex/base/article.cls
INPUT /usr/share/texlive/texmf-dist/tex/latex/base/article.cls
INPUT /usr/share/texlive/texmf-dist/tex/latex/base/size10.clo
INPUT /usr/share/texlive/texmf-dist/tex/latex/base/size10.clo
INPUT /usr/share/texlive/texmf-dist/tex/latex/tabto-ltx/tabto.sty
INPUT /usr/share/texlive/texmf-dist/tex/latex/tabto-ltx/tabto.sty
INPUT /usr/share/texlive/texmf-dist/tex/latex/amscls/amsthm.sty
INPUT /usr/share/texlive/texmf-dist/tex/latex/amscls/amsthm.sty
INPUT /usr/share/texlive/texmf-dist/tex/latex/amsfonts/amssymb.sty
INPUT /usr/share/texlive/texmf-dist/tex/latex/amsfonts/amssymb.sty
INPUT /usr/share/texlive/texmf-dist/tex/latex/amsfonts/amsfonts.sty
INPUT /usr/share/texlive/texmf-dist/tex/latex/amsfonts/amsfonts.sty
INPUT /usr/share/texmf/tex/latex/lm/lmodern.sty
INPUT /usr/share/texmf/tex/latex/lm/lmodern.sty
INPUT /usr/share/texlive/texmf-dist/tex/latex/was/upgreek.sty
INPUT /usr/share/texlive/texmf-dist/tex/latex/was/upgreek.sty
INPUT /usr/share/texlive/texmf-dist/tex/latex/mathtools/mathtools.sty
INPUT /usr/share/texlive/texmf-dist/tex/latex/mathtools/mathtools.sty
INPUT /usr/share/texlive/texmf-dist/tex/latex/graphics/keyval.sty
INPUT /usr/share/texlive/texmf-dist/tex/latex/graphics/keyval.sty
INPUT /usr/share/texlive/texmf-dist/tex/latex/tools/calc.sty
INPUT /usr/share/texlive/texmf-dist/tex/latex/tools/calc.sty
INPUT /usr/share/texlive/texmf-dist/tex/latex/mathtools/mhsetup.sty
INPUT /usr/share/texlive/texmf-dist/tex/latex/mathtools/mhsetup.sty
INPUT /usr/share/texlive/texmf-dist/tex/latex/amsmath/amsmath.sty
INPUT /usr/share/texlive/texmf-dist/tex/latex/amsmath/amsmath.sty
INPUT /usr/share/texlive/texmf-dist/tex/latex/amsmath/amstext.sty
INPUT /usr/share/texlive/texmf-dist/tex/latex/amsmath/amstext.sty
INPUT /usr/share/texlive/texmf-dist/tex/latex/amsmath/amsgen.sty
INPUT /usr/share/texlive/texmf-dist/tex/latex/amsmath/amsgen.sty
INPUT /usr/share/texlive/texmf-dist/tex/latex/amsmath/amsbsy.sty
INPUT /usr/share/texlive/texmf-dist/tex/latex/amsmath/amsbsy.sty
INPUT /usr/share/texlive/texmf-dist/tex/latex/amsmath/amsopn.sty
INPUT /usr/share/texlive/texmf-dist/tex/latex/amsmath/amsopn.sty
INPUT /usr/share/texlive/texmf-dist/tex/latex/ncctools/nccmath.sty
INPUT /usr/share/texlive/texmf-dist/tex/latex/ncctools/nccmath.sty
INPUT /usr/share/texlive/texmf-dist/tex/latex/base/inputenc.sty
INPUT /usr/share/texlive/texmf-dist/tex/latex/base/inputenc.sty
INPUT /usr/share/texlive/texmf-dist/tex/latex/base/utf8.def
INPUT /usr/share/texlive/texmf-dist/tex/latex/base/utf8.def
INPUT /usr/share/texlive/texmf-dist/tex/latex/base/t1enc.dfu
INPUT /usr/share/texlive/texmf-dist/tex/latex/base/t1enc.dfu
INPUT /usr/share/texlive/texmf-dist/tex/latex/base/ot1enc.dfu
INPUT /usr/share/texlive/texmf-dist/tex/latex/base/ot1enc.dfu
INPUT /usr/share/texlive/texmf-dist/tex/latex/base/omsenc.dfu
INPUT /usr/share/texlive/texmf-dist/tex/latex/base/omsenc.dfu
INPUT IterativeCompression.aux
INPUT IterativeCompression.aux
OUTPUT IterativeCompression.aux
INPUT /usr/share/texmf/tex/latex/lm/ot1lmr.fd
INPUT /usr/share/texmf/tex/latex/lm/ot1lmr.fd
INPUT /usr/share/texlive/texmf-dist/fonts/map/fontname/texfonts.map
INPUT /usr/share/texmf/fonts/tfm/public/lm/rm-lmr10.tfm
INPUT /usr/share/texlive/texmf-dist/tex/latex/graphics/graphicx.sty
INPUT /usr/share/texlive/texmf-dist/tex/latex/graphics/graphicx.sty
INPUT /usr/share/texlive/texmf-dist/tex/latex/graphics/graphics.sty
INPUT /usr/share/texlive/texmf-dist/tex/latex/graphics/graphics.sty
INPUT /usr/share/texlive/texmf-dist/tex/latex/graphics/trig.sty
INPUT /usr/share/texlive/texmf-dist/tex/latex/graphics/trig.sty
INPUT /usr/share/texlive/texmf-dist/tex/latex/latexconfig/graphics.cfg
INPUT /usr/share/texlive/texmf-dist/tex/latex/latexconfig/graphics.cfg
INPUT /usr/share/texlive/texmf-dist/tex/latex/pdftex-def/pdftex.def
INPUT /usr/share/texlive/texmf-dist/tex/latex/pdftex-def/pdftex.def
INPUT /usr/share/texlive/texmf-dist/tex/generic/oberdiek/infwarerr.sty
INPUT /usr/share/texlive/texmf-dist/tex/generic/oberdiek/infwarerr.sty
INPUT /usr/share/texlive/texmf-dist/tex/generic/oberdiek/ltxcmds.sty
INPUT /usr/share/texlive/texmf-dist/tex/generic/oberdiek/ltxcmds.sty
INPUT /usr/share/texlive/texmf-dist/tex/context/base/supp-pdf.mkii
INPUT /usr/share/texlive/texmf-dist/tex/context/base/supp-pdf.mkii
INPUT /usr/share/texlive/texmf-dist/tex/generic/oberdiek/pdftexcmds.sty
INPUT /usr/share/texlive/texmf-dist/tex/generic/oberdiek/pdftexcmds.sty
INPUT /usr/share/texlive/texmf-dist/tex/generic/oberdiek/ifluatex.sty
INPUT /usr/share/texlive/texmf-dist/tex/generic/oberdiek/ifluatex.sty
INPUT /usr/share/texlive/texmf-dist/tex/generic/oberdiek/ifpdf.sty
INPUT /usr/share/texlive/texmf-dist/tex/generic/oberdiek/ifpdf.sty
INPUT /usr/share/texlive/texmf-dist/tex/latex/oberdiek/epstopdf-base.sty
INPUT /usr/share/texlive/texmf-dist/tex/latex/oberdiek/epstopdf-base.sty
INPUT /usr/share/texlive/texmf-dist/tex/latex/oberdiek/grfext.sty
INPUT /usr/share/texlive/texmf-dist/tex/latex/oberdiek/grfext.sty
INPUT /usr/share/texlive/texmf-dist/tex/generic/oberdiek/kvdefinekeys.sty
INPUT /usr/share/texlive/texmf-dist/tex/generic/oberdiek/kvdefinekeys.sty
INPUT /usr/share/texlive/texmf-dist/tex/latex/oberdiek/kvoptions.sty
INPUT /usr/share/texlive/texmf-dist/tex/latex/oberdiek/kvoptions.sty
INPUT /usr/share/texlive/texmf-dist/tex/generic/oberdiek/kvsetkeys.sty
INPUT /usr/share/texlive/texmf-dist/tex/generic/oberdiek/kvsetkeys.sty
INPUT /usr/share/texlive/texmf-dist/tex/generic/oberdiek/etexcmds.sty
INPUT /usr/share/texlive/texmf-dist/tex/generic/oberdiek/etexcmds.sty
INPUT /usr/share/texlive/texmf-dist/tex/latex/latexconfig/epstopdf-sys.cfg
INPUT /usr/share/texlive/texmf-dist/tex/latex/latexconfig/epstopdf-sys.cfg
INPUT /usr/share/texmf/fonts/tfm/public/lm/rm-lmr17.tfm
INPUT /usr/share/texmf/fonts/tfm/public/lm/rm-lmr12.tfm
INPUT /usr/share/texmf/fonts/tfm/public/lm/rm-lmr8.tfm
INPUT /usr/share/texmf/fonts/tfm/public/lm/rm-lmr6.tfm
INPUT /usr/share/texmf/tex/latex/lm/omllmm.fd
INPUT /usr/share/texmf/tex/latex/lm/omllmm.fd
INPUT /usr/share/texmf/fonts/tfm/public/lm/lmmi12.tfm
INPUT /usr/share/texmf/fonts/tfm/public/lm/lmmi8.tfm
INPUT /usr/share/texmf/fonts/tfm/public/lm/lmmi6.tfm
INPUT /usr/share/texmf/tex/latex/lm/omslmsy.fd
INPUT /usr/share/texmf/tex/latex/lm/omslmsy.fd
INPUT /usr/share/texmf/fonts/tfm/public/lm/lmsy10.tfm
INPUT /usr/share/texmf/fonts/tfm/public/lm/lmsy8.tfm
INPUT /usr/share/texmf/fonts/tfm/public/lm/lmsy6.tfm
INPUT /usr/share/texmf/tex/latex/lm/omxlmex.fd
INPUT /usr/share/texmf/tex/latex/lm/omxlmex.fd
INPUT /usr/share/texmf/fonts/tfm/public/lm/lmex10.tfm
INPUT /usr/share/texlive/texmf-dist/tex/latex/amsfonts/umsa.fd
INPUT /usr/share/texlive/texmf-dist/tex/latex/amsfonts/umsa.fd
INPUT /usr/share/texlive/texmf-dist/fonts/tfm/public/amsfonts/symbols/msam10.tfm
INPUT /usr/share/texlive/texmf-dist/fonts/tfm/public/amsfonts/symbols/msam10.tfm
INPUT /usr/share/texlive/texmf-dist/fonts/tfm/public/amsfonts/symbols/msam7.tfm
INPUT /usr/share/texlive/texmf-dist/tex/latex/amsfonts/umsb.fd
INPUT /usr/share/texlive/texmf-dist/tex/latex/amsfonts/umsb.fd
INPUT /usr/share/texlive/texmf-dist/fonts/tfm/public/amsfonts/symbols/msbm10.tfm
INPUT /usr/share/texlive/texmf-dist/fonts/tfm/public/amsfonts/symbols/msbm10.tfm
INPUT /usr/share/texlive/texmf-dist/fonts/tfm/public/amsfonts/symbols/msbm7.tfm
INPUT /usr/share/texlive/texmf-dist/fonts/tfm/public/amsfonts/euler/eurm10.tfm
INPUT /usr/share/texlive/texmf-dist/fonts/tfm/public/amsfonts/euler/eurm10.tfm
INPUT /usr/share/texlive/texmf-dist/fonts/tfm/public/amsfonts/euler/eurm7.tfm
INPUT /usr/share/texmf/fonts/tfm/public/lm/rm-lmr12.tfm
INPUT /usr/share/texmf/fonts/tfm/public/lm/rm-lmbx12.tfm
INPUT /usr/share/texmf/fonts/tfm/public/lm/rm-lmr7.tfm
INPUT /usr/share/texmf/fonts/tfm/public/lm/rm-lmr5.tfm
INPUT /usr/share/texmf/fonts/tfm/public/lm/lmmi10.tfm
INPUT /usr/share/texmf/fonts/tfm/public/lm/lmmi7.tfm
INPUT /usr/share/texmf/fonts/tfm/public/lm/lmmi5.tfm
INPUT /usr/share/texmf/fonts/tfm/public/lm/lmsy10.tfm
INPUT /usr/share/texmf/fonts/tfm/public/lm/lmsy7.tfm
INPUT /usr/share/texmf/fonts/tfm/public/lm/lmsy5.tfm
INPUT /usr/share/texlive/texmf-dist/fonts/tfm/public/amsfonts/symbols/msam10.tfm
INPUT /usr/share/texlive/texmf-dist/fonts/tfm/public/amsfonts/symbols/msam7.tfm
INPUT /usr/share/texlive/texmf-dist/fonts/tfm/public/amsfonts/symbols/msam5.tfm
INPUT /usr/share/texlive/texmf-dist/fonts/tfm/public/amsfonts/symbols/msbm10.tfm
INPUT /usr/share/texlive/texmf-dist/fonts/tfm/public/amsfonts/symbols/msbm7.tfm
INPUT /usr/share/texlive/texmf-dist/fonts/tfm/public/amsfonts/symbols/msbm5.tfm
INPUT /usr/share/texlive/texmf-dist/fonts/tfm/public/amsfonts/euler/eurm10.tfm
INPUT /usr/share/texlive/texmf-dist/fonts/tfm/public/amsfonts/euler/eurm7.tfm
INPUT /usr/share/texlive/texmf-dist/fonts/tfm/public/amsfonts/euler/eurm5.tfm
INPUT /usr/share/texmf/fonts/tfm/public/lm/rm-lmri10.tfm
INPUT /usr/share/texmf/fonts/tfm/public/lm/rm-lmbx10.tfm
INPUT /usr/share/texmf/tex/latex/lm/omslmr.fd
INPUT /usr/share/texmf/tex/latex/lm/omslmr.fd
INPUT /usr/share/texmf/fonts/tfm/public/lm/rm-lmbx12.tfm
OUTPUT IterativeCompression.pdf
INPUT /var/lib/texmf/fonts/map/pdftex/updmap/pdftex.map
INPUT IterativeCompression.aux
INPUT /usr/share/texmf/fonts/enc/dvips/lm/lm-mathsy.enc
INPUT /usr/share/texmf/fonts/enc/dvips/lm/lm-rm.enc
INPUT /usr/share/texmf/fonts/enc/dvips/lm/lm-mathit.enc
INPUT /usr/share/texmf/fonts/type1/public/lm/lmbx10.pfb
INPUT /usr/share/texmf/fonts/type1/public/lm/lmbx12.pfb
INPUT /usr/share/texmf/fonts/type1/public/lm/lmmi10.pfb
INPUT /usr/share/texmf/fonts/type1/public/lm/lmmi7.pfb
INPUT /usr/share/texmf/fonts/type1/public/lm/lmr10.pfb
INPUT /usr/share/texmf/fonts/type1/public/lm/lmr12.pfb
INPUT /usr/share/texmf/fonts/type1/public/lm/lmr17.pfb
INPUT /usr/share/texmf/fonts/type1/public/lm/lmr7.pfb
INPUT /usr/share/texmf/fonts/type1/public/lm/lmri10.pfb
INPUT /usr/share/texmf/fonts/type1/public/lm/lmsy10.pfb
INPUT /usr/share/texmf/fonts/type1/public/lm/lmsy7.pfb
INPUT /usr/share/texlive/texmf-dist/fonts/type1/public/amsfonts/symbols/msbm10.pfb
