# Fdb version 3
["pdflatex"] 1479130368 "ExamList.tex" "ExamList.pdf" "ExamList" 1479130368
  "/etc/texmf/web2c/texmf.cnf" 1478101733 475 c0e671620eb5563b2130f56340a5fde8 ""
  "/usr/share/texlive/texmf-dist/fonts/map/fontname/texfonts.map" 1272929888 3287 e6b82fe08f5336d4d5ebc73fb1152e87 ""
  "/usr/share/texlive/texmf-dist/fonts/tfm/public/cm/cmbx12.tfm" 1136768653 1324 c910af8c371558dc20f2d7822f66fe64 ""
  "/usr/share/texlive/texmf-dist/fonts/tfm/public/cm/cmr12.tfm" 1136768653 1288 655e228510b4c2a1abe905c368440826 ""
  "/usr/share/texlive/texmf-dist/fonts/type1/public/amsfonts/cm/cmbx12.pfb" 1248133631 32080 340ef9bf63678554ee606688e7b5339d ""
  "/usr/share/texlive/texmf-dist/fonts/type1/public/amsfonts/cm/cmr10.pfb" 1248133631 35752 024fb6c41858982481f6968b5fc26508 ""
  "/usr/share/texlive/texmf-dist/fonts/type1/public/amsfonts/cm/cmsy10.pfb" 1248133631 32569 5e5ddc8df908dea60932f3c484a54c0d ""
  "/usr/share/texlive/texmf-dist/tex/latex/base/article.cls" 1454284088 20708 39fdf9e2fb65617012fa7382a351f485 ""
  "/usr/share/texlive/texmf-dist/tex/latex/base/omscmr.fd" 1454284088 2256 80ce1168fb4ce6a85583a9cf8972c013 ""
  "/usr/share/texlive/texmf-dist/tex/latex/base/size10.clo" 1454284088 9179 4cd3c5f593e63512893b8ac0123f1bd7 ""
  "/usr/share/texlive/texmf-dist/web2c/texmf.cnf" 1458942643 31351 b32c45dce4a01cb7b53ed90c546614ca ""
  "/usr/share/texmf/web2c/texmf.cnf" 1458942643 31351 b32c45dce4a01cb7b53ed90c546614ca ""
  "/var/lib/texmf/fonts/map/pdftex/updmap/pdftex.map" 1478766758 127805 5c3c5fac7370b5e0b4000550316abe76 ""
  "/var/lib/texmf/web2c/pdftex/pdflatex.fmt" 1478766755 853566 0f6e61396ff5c64879f0265b32669bf4 ""
  "ExamList.aux" 1479130368 8 a94a2480d3289e625eea47cd1b285758 ""
  "ExamList.tex" 1479130364 344 e5d18ba19723854e50caf4b63c9d5e71 ""
  (generated)
  "ExamList.aux"
  "ExamList.log"
  "ExamList.pdf"
